<?xml version="1.0" encoding="utf-8"?>
<!DOCTYPE eagle SYSTEM "eagle.dtd">
<eagle version="6.3">
<drawing>
<settings>
<setting alwaysvectorfont="yes"/>
<setting verticaltext="up"/>
</settings>
<grid distance="0.05" unitdist="inch" unit="inch" style="lines" multiple="1" display="yes" altdistance="0.01" altunitdist="inch" altunit="inch"/>
<layers>
<layer number="1" name="Top" color="4" fill="1" visible="yes" active="yes"/>
<layer number="16" name="Bottom" color="1" fill="1" visible="yes" active="yes"/>
<layer number="17" name="Pads" color="2" fill="1" visible="yes" active="yes"/>
<layer number="18" name="Vias" color="2" fill="1" visible="yes" active="yes"/>
<layer number="19" name="Unrouted" color="6" fill="1" visible="yes" active="yes"/>
<layer number="20" name="Dimension" color="15" fill="1" visible="yes" active="yes"/>
<layer number="21" name="tPlace" color="7" fill="1" visible="yes" active="yes"/>
<layer number="22" name="bPlace" color="7" fill="1" visible="yes" active="yes"/>
<layer number="23" name="tOrigins" color="15" fill="1" visible="yes" active="yes"/>
<layer number="24" name="bOrigins" color="15" fill="1" visible="yes" active="yes"/>
<layer number="25" name="tNames" color="7" fill="1" visible="yes" active="yes"/>
<layer number="26" name="bNames" color="7" fill="1" visible="yes" active="yes"/>
<layer number="27" name="tValues" color="7" fill="1" visible="no" active="yes"/>
<layer number="28" name="bValues" color="7" fill="1" visible="yes" active="yes"/>
<layer number="29" name="tStop" color="7" fill="3" visible="no" active="yes"/>
<layer number="30" name="bStop" color="7" fill="6" visible="no" active="yes"/>
<layer number="31" name="tCream" color="7" fill="4" visible="no" active="yes"/>
<layer number="32" name="bCream" color="7" fill="5" visible="no" active="yes"/>
<layer number="33" name="tFinish" color="6" fill="3" visible="no" active="yes"/>
<layer number="34" name="bFinish" color="6" fill="6" visible="no" active="yes"/>
<layer number="35" name="tGlue" color="7" fill="4" visible="no" active="yes"/>
<layer number="36" name="bGlue" color="7" fill="5" visible="no" active="yes"/>
<layer number="37" name="tTest" color="7" fill="1" visible="no" active="yes"/>
<layer number="38" name="bTest" color="7" fill="1" visible="no" active="yes"/>
<layer number="39" name="tKeepout" color="4" fill="11" visible="yes" active="yes"/>
<layer number="40" name="bKeepout" color="1" fill="11" visible="yes" active="yes"/>
<layer number="41" name="tRestrict" color="4" fill="10" visible="yes" active="yes"/>
<layer number="42" name="bRestrict" color="1" fill="10" visible="yes" active="yes"/>
<layer number="43" name="vRestrict" color="2" fill="10" visible="yes" active="yes"/>
<layer number="44" name="Drills" color="7" fill="1" visible="no" active="yes"/>
<layer number="45" name="Holes" color="7" fill="1" visible="yes" active="yes"/>
<layer number="46" name="Milling" color="3" fill="1" visible="no" active="yes"/>
<layer number="47" name="Measures" color="7" fill="1" visible="no" active="yes"/>
<layer number="48" name="Document" color="7" fill="1" visible="yes" active="yes"/>
<layer number="49" name="Reference" color="7" fill="1" visible="yes" active="yes"/>
<layer number="50" name="dxf" color="7" fill="1" visible="no" active="no"/>
<layer number="51" name="tDocu" color="7" fill="1" visible="no" active="yes"/>
<layer number="52" name="bDocu" color="7" fill="1" visible="yes" active="yes"/>
<layer number="53" name="tGND_GNDA" color="7" fill="9" visible="no" active="no"/>
<layer number="54" name="bGND_GNDA" color="1" fill="9" visible="no" active="no"/>
<layer number="56" name="wert" color="7" fill="1" visible="no" active="no"/>
<layer number="91" name="Nets" color="2" fill="1" visible="no" active="no"/>
<layer number="92" name="Busses" color="1" fill="1" visible="no" active="no"/>
<layer number="93" name="Pins" color="2" fill="1" visible="no" active="no"/>
<layer number="94" name="Symbols" color="4" fill="1" visible="no" active="no"/>
<layer number="95" name="Names" color="7" fill="1" visible="no" active="no"/>
<layer number="96" name="Values" color="7" fill="1" visible="no" active="no"/>
<layer number="97" name="Info" color="7" fill="1" visible="no" active="no"/>
<layer number="98" name="Guide" color="6" fill="1" visible="no" active="no"/>
<layer number="100" name="Muster" color="7" fill="1" visible="yes" active="yes"/>
<layer number="101" name="Flex-Kleb" color="1" fill="7" visible="yes" active="yes"/>
<layer number="102" name="fp2" color="7" fill="1" visible="yes" active="yes"/>
<layer number="103" name="fp3" color="7" fill="1" visible="yes" active="yes"/>
<layer number="104" name="fp4" color="7" fill="1" visible="yes" active="yes"/>
<layer number="105" name="Beschreib" color="9" fill="1" visible="yes" active="yes"/>
<layer number="106" name="BGA-Top" color="4" fill="1" visible="yes" active="yes"/>
<layer number="107" name="BD-Top" color="5" fill="1" visible="yes" active="yes"/>
<layer number="108" name="fp8" color="7" fill="1" visible="yes" active="yes"/>
<layer number="109" name="fp9" color="7" fill="1" visible="yes" active="yes"/>
<layer number="110" name="fp0" color="7" fill="1" visible="yes" active="yes"/>
<layer number="116" name="Patch_BOT" color="9" fill="4" visible="yes" active="yes"/>
<layer number="121" name="tTestdril" color="7" fill="1" visible="yes" active="yes"/>
<layer number="122" name="bTestdril" color="7" fill="1" visible="yes" active="yes"/>
<layer number="123" name="tTestmark" color="7" fill="1" visible="yes" active="yes"/>
<layer number="124" name="bTestmark" color="7" fill="1" visible="yes" active="yes"/>
<layer number="125" name="_tNames" color="7" fill="1" visible="no" active="yes"/>
<layer number="131" name="tAdjust" color="7" fill="1" visible="yes" active="yes"/>
<layer number="132" name="bAdjust" color="7" fill="1" visible="yes" active="yes"/>
<layer number="144" name="Drill_legend" color="7" fill="1" visible="no" active="yes"/>
<layer number="151" name="HeatSink" color="7" fill="1" visible="no" active="yes"/>
<layer number="200" name="200bmp" color="7" fill="1" visible="yes" active="yes"/>
<layer number="201" name="201bmp" color="7" fill="1" visible="yes" active="yes"/>
<layer number="202" name="202bmp" color="7" fill="1" visible="yes" active="yes"/>
<layer number="203" name="203bmp" color="7" fill="1" visible="yes" active="yes"/>
<layer number="204" name="204bmp" color="7" fill="1" visible="yes" active="yes"/>
<layer number="205" name="205bmp" color="7" fill="1" visible="yes" active="yes"/>
<layer number="206" name="206bmp" color="7" fill="1" visible="yes" active="yes"/>
<layer number="207" name="207bmp" color="7" fill="1" visible="yes" active="yes"/>
<layer number="208" name="208bmp" color="7" fill="1" visible="yes" active="yes"/>
<layer number="209" name="209bmp" color="7" fill="1" visible="yes" active="yes"/>
<layer number="210" name="210bmp" color="7" fill="1" visible="yes" active="yes"/>
<layer number="211" name="211bmp" color="7" fill="1" visible="no" active="yes"/>
<layer number="212" name="212bmp" color="7" fill="1" visible="no" active="yes"/>
<layer number="213" name="213bmp" color="7" fill="1" visible="no" active="yes"/>
<layer number="214" name="214bmp" color="7" fill="1" visible="no" active="yes"/>
<layer number="215" name="215bmp" color="7" fill="1" visible="no" active="yes"/>
<layer number="216" name="216bmp" color="7" fill="1" visible="no" active="yes"/>
<layer number="217" name="217bmp" color="18" fill="1" visible="no" active="no"/>
<layer number="218" name="218bmp" color="19" fill="1" visible="no" active="no"/>
<layer number="219" name="219bmp" color="20" fill="1" visible="no" active="no"/>
<layer number="220" name="220bmp" color="21" fill="1" visible="no" active="no"/>
<layer number="221" name="221bmp" color="22" fill="1" visible="no" active="no"/>
<layer number="222" name="222bmp" color="23" fill="1" visible="no" active="no"/>
<layer number="223" name="223bmp" color="24" fill="1" visible="no" active="no"/>
<layer number="224" name="224bmp" color="25" fill="1" visible="no" active="no"/>
<layer number="250" name="Descript" color="3" fill="1" visible="no" active="no"/>
<layer number="251" name="SMDround" color="12" fill="11" visible="no" active="no"/>
<layer number="254" name="OrgLBR" color="7" fill="1" visible="yes" active="yes"/>
</layers>
<board>
<plain>
<wire x1="0" y1="0" x2="41.91" y2="0" width="0" layer="20"/>
<wire x1="0" y1="45.72" x2="0" y2="0" width="0" layer="20"/>
<wire x1="41.91" y1="0" x2="41.91" y2="45.72" width="0" layer="20"/>
<wire x1="41.91" y1="45.72" x2="0" y2="45.72" width="0" layer="20"/>
<hole x="39.37" y="43.18" drill="3.2"/>
<hole x="2.54" y="43.18" drill="3.2"/>
<hole x="2.54" y="2.54" drill="3.2"/>
<hole x="39.37" y="2.54" drill="3.2"/>
</plain>
<libraries>
<library name="SparkFun">
<description>&lt;h3&gt;SparkFun Electronics' preferred foot prints&lt;/h3&gt;
We've spent an enormous amount of time creating and checking these footprints and parts. If you enjoy using this library, please buy one of our products at www.sparkfun.com.
&lt;br&gt;&lt;br&gt;
&lt;b&gt;Licensing:&lt;/b&gt; CC v3.0 Share-Alike You are welcome to use this library for commercial purposes. For attribution, we ask that when you begin to sell your device using our footprint, you email us with a link to the product being sold. We want bragging rights that we helped (in a very small part) to create your 8th world wonder. We would like the opportunity to feature your device on our homepage.</description>
<packages>
<package name="CPOL-RADIAL-100UF-25V">
<wire x1="-0.635" y1="1.27" x2="-1.905" y2="1.27" width="0.2032" layer="21"/>
<circle x="0" y="0" radius="3.25" width="0.2032" layer="21"/>
<pad name="2" x="-1.27" y="0" drill="0.7" diameter="1.651"/>
<pad name="1" x="1.27" y="0" drill="0.7" diameter="1.651" shape="square"/>
<text x="-1.905" y="-4.318" size="0.8128" layer="27">&gt;Value</text>
<text x="-0.762" y="1.651" size="0.4064" layer="25">&gt;Name</text>
</package>
<package name="CAP-PTH-5MM">
<wire x1="0" y1="0.635" x2="0" y2="-0.635" width="0.2032" layer="21"/>
<pad name="1" x="-2.5" y="0" drill="0.7" diameter="1.651"/>
<pad name="2" x="2.5" y="0" drill="0.7" diameter="1.651"/>
<text x="-0.762" y="1.27" size="0.4064" layer="25">&gt;Name</text>
<text x="-1.016" y="-1.524" size="0.4064" layer="27">&gt;Value</text>
</package>
<package name="AXIAL-0.4">
<description>1/4W Resistor, 0.4" wide&lt;p&gt;

Yageo CFR series &lt;a href="http://www.yageo.com/pdf/yageo/Leaded-R_CFR_2008.pdf"&gt;http://www.yageo.com/pdf/yageo/Leaded-R_CFR_2008.pdf&lt;/a&gt;</description>
<wire x1="-3.15" y1="-1.2" x2="-3.15" y2="1.2" width="0.2032" layer="21"/>
<wire x1="-3.15" y1="1.2" x2="3.15" y2="1.2" width="0.2032" layer="21"/>
<wire x1="3.15" y1="1.2" x2="3.15" y2="-1.2" width="0.2032" layer="21"/>
<wire x1="3.15" y1="-1.2" x2="-3.15" y2="-1.2" width="0.2032" layer="21"/>
<pad name="P$1" x="-5.08" y="0" drill="0.9" diameter="1.8796"/>
<pad name="P$2" x="5.08" y="0" drill="0.9" diameter="1.8796"/>
<text x="-3.175" y="1.905" size="0.8128" layer="25" font="vector" ratio="15">&gt;Name</text>
<text x="-2.286" y="-0.381" size="0.8128" layer="21" font="vector" ratio="15">&gt;Value</text>
</package>
<package name="TACTILE-PTH">
<description>&lt;b&gt;OMRON SWITCH&lt;/b&gt;</description>
<wire x1="3.048" y1="1.016" x2="3.048" y2="2.54" width="0.2032" layer="51"/>
<wire x1="3.048" y1="2.54" x2="2.54" y2="3.048" width="0.2032" layer="51"/>
<wire x1="2.54" y1="-3.048" x2="3.048" y2="-2.54" width="0.2032" layer="51"/>
<wire x1="3.048" y1="-2.54" x2="3.048" y2="-1.016" width="0.2032" layer="51"/>
<wire x1="-2.54" y1="3.048" x2="-3.048" y2="2.54" width="0.2032" layer="51"/>
<wire x1="-3.048" y1="2.54" x2="-3.048" y2="1.016" width="0.2032" layer="51"/>
<wire x1="-2.54" y1="-3.048" x2="-3.048" y2="-2.54" width="0.2032" layer="51"/>
<wire x1="-3.048" y1="-2.54" x2="-3.048" y2="-1.016" width="0.2032" layer="51"/>
<wire x1="2.54" y1="-3.048" x2="2.159" y2="-3.048" width="0.2032" layer="51"/>
<wire x1="-2.54" y1="-3.048" x2="-2.159" y2="-3.048" width="0.2032" layer="51"/>
<wire x1="-2.54" y1="3.048" x2="-2.159" y2="3.048" width="0.2032" layer="51"/>
<wire x1="2.54" y1="3.048" x2="2.159" y2="3.048" width="0.2032" layer="51"/>
<wire x1="2.159" y1="3.048" x2="-2.159" y2="3.048" width="0.2032" layer="21"/>
<wire x1="-2.159" y1="-3.048" x2="2.159" y2="-3.048" width="0.2032" layer="21"/>
<wire x1="3.048" y1="0.998" x2="3.048" y2="-1.016" width="0.2032" layer="21"/>
<wire x1="-3.048" y1="1.028" x2="-3.048" y2="-1.016" width="0.2032" layer="21"/>
<wire x1="-2.54" y1="1.27" x2="-2.54" y2="0.508" width="0.2032" layer="51"/>
<wire x1="-2.54" y1="-0.508" x2="-2.54" y2="-1.27" width="0.2032" layer="51"/>
<wire x1="-2.54" y1="0.508" x2="-2.159" y2="-0.381" width="0.2032" layer="51"/>
<circle x="0" y="0" radius="1.778" width="0.2032" layer="21"/>
<pad name="1" x="-3.2512" y="2.2606" drill="1.016" diameter="1.8796"/>
<pad name="2" x="3.2512" y="2.2606" drill="1.016" diameter="1.8796"/>
<pad name="3" x="-3.2512" y="-2.2606" drill="1.016" diameter="1.8796"/>
<pad name="4" x="3.2512" y="-2.2606" drill="1.016" diameter="1.8796"/>
<text x="-2.54" y="3.81" size="1.27" layer="25" ratio="10">&gt;NAME</text>
</package>
<package name="DIODE-1N4001">
<wire x1="3.175" y1="1.27" x2="1.905" y2="1.27" width="0.254" layer="21"/>
<wire x1="1.905" y1="1.27" x2="-3.175" y2="1.27" width="0.254" layer="21"/>
<wire x1="-3.175" y1="1.27" x2="-3.175" y2="0" width="0.254" layer="21"/>
<wire x1="-3.175" y1="0" x2="-3.175" y2="-1.27" width="0.254" layer="21"/>
<wire x1="-3.175" y1="-1.27" x2="1.905" y2="-1.27" width="0.254" layer="21"/>
<wire x1="1.905" y1="-1.27" x2="3.175" y2="-1.27" width="0.254" layer="21"/>
<wire x1="3.175" y1="-1.27" x2="3.175" y2="0" width="0.254" layer="21"/>
<wire x1="3.175" y1="0" x2="3.175" y2="1.27" width="0.254" layer="21"/>
<wire x1="1.905" y1="1.27" x2="1.905" y2="-1.27" width="0.254" layer="21"/>
<wire x1="-3.175" y1="0" x2="-3.81" y2="0" width="0.254" layer="21"/>
<wire x1="3.175" y1="0" x2="3.81" y2="0" width="0.254" layer="21"/>
<pad name="A" x="-5.08" y="0" drill="1" diameter="1.9812"/>
<pad name="C" x="5.08" y="0" drill="1" diameter="1.9812"/>
<text x="-2.921" y="1.651" size="0.6096" layer="25">&gt;Name</text>
<text x="-2.921" y="-0.508" size="1.016" layer="21" ratio="12">&gt;Value</text>
</package>
<package name="1X04">
<wire x1="6.985" y1="1.27" x2="8.255" y2="1.27" width="0.2032" layer="21"/>
<wire x1="8.255" y1="1.27" x2="8.89" y2="0.635" width="0.2032" layer="21"/>
<wire x1="8.89" y1="-0.635" x2="8.255" y2="-1.27" width="0.2032" layer="21"/>
<wire x1="3.81" y1="0.635" x2="4.445" y2="1.27" width="0.2032" layer="21"/>
<wire x1="4.445" y1="1.27" x2="5.715" y2="1.27" width="0.2032" layer="21"/>
<wire x1="5.715" y1="1.27" x2="6.35" y2="0.635" width="0.2032" layer="21"/>
<wire x1="6.35" y1="-0.635" x2="5.715" y2="-1.27" width="0.2032" layer="21"/>
<wire x1="5.715" y1="-1.27" x2="4.445" y2="-1.27" width="0.2032" layer="21"/>
<wire x1="4.445" y1="-1.27" x2="3.81" y2="-0.635" width="0.2032" layer="21"/>
<wire x1="6.985" y1="1.27" x2="6.35" y2="0.635" width="0.2032" layer="21"/>
<wire x1="6.35" y1="-0.635" x2="6.985" y2="-1.27" width="0.2032" layer="21"/>
<wire x1="8.255" y1="-1.27" x2="6.985" y2="-1.27" width="0.2032" layer="21"/>
<wire x1="-0.635" y1="1.27" x2="0.635" y2="1.27" width="0.2032" layer="21"/>
<wire x1="0.635" y1="1.27" x2="1.27" y2="0.635" width="0.2032" layer="21"/>
<wire x1="1.27" y1="-0.635" x2="0.635" y2="-1.27" width="0.2032" layer="21"/>
<wire x1="1.27" y1="0.635" x2="1.905" y2="1.27" width="0.2032" layer="21"/>
<wire x1="1.905" y1="1.27" x2="3.175" y2="1.27" width="0.2032" layer="21"/>
<wire x1="3.175" y1="1.27" x2="3.81" y2="0.635" width="0.2032" layer="21"/>
<wire x1="3.81" y1="-0.635" x2="3.175" y2="-1.27" width="0.2032" layer="21"/>
<wire x1="3.175" y1="-1.27" x2="1.905" y2="-1.27" width="0.2032" layer="21"/>
<wire x1="1.905" y1="-1.27" x2="1.27" y2="-0.635" width="0.2032" layer="21"/>
<wire x1="-1.27" y1="0.635" x2="-1.27" y2="-0.635" width="0.2032" layer="21"/>
<wire x1="-0.635" y1="1.27" x2="-1.27" y2="0.635" width="0.2032" layer="21"/>
<wire x1="-1.27" y1="-0.635" x2="-0.635" y2="-1.27" width="0.2032" layer="21"/>
<wire x1="0.635" y1="-1.27" x2="-0.635" y2="-1.27" width="0.2032" layer="21"/>
<wire x1="8.89" y1="0.635" x2="8.89" y2="-0.635" width="0.2032" layer="21"/>
<pad name="1" x="0" y="0" drill="1.016" diameter="1.8796" shape="square" rot="R90"/>
<pad name="2" x="2.54" y="0" drill="1.016" diameter="1.8796" rot="R90"/>
<pad name="3" x="5.08" y="0" drill="1.016" diameter="1.8796" rot="R90"/>
<pad name="4" x="7.62" y="0" drill="1.016" diameter="1.8796" rot="R90"/>
<text x="-1.3462" y="1.8288" size="1.27" layer="25" ratio="10">&gt;NAME</text>
<text x="-1.27" y="-3.175" size="1.27" layer="27">&gt;VALUE</text>
<rectangle x1="7.366" y1="-0.254" x2="7.874" y2="0.254" layer="51"/>
<rectangle x1="4.826" y1="-0.254" x2="5.334" y2="0.254" layer="51"/>
<rectangle x1="2.286" y1="-0.254" x2="2.794" y2="0.254" layer="51"/>
<rectangle x1="-0.254" y1="-0.254" x2="0.254" y2="0.254" layer="51"/>
</package>
<package name="2X3">
<wire x1="-1.27" y1="-0.635" x2="-0.635" y2="-1.27" width="0.2032" layer="21"/>
<wire x1="0.635" y1="-1.27" x2="1.27" y2="-0.635" width="0.2032" layer="21"/>
<wire x1="1.27" y1="-0.635" x2="1.905" y2="-1.27" width="0.2032" layer="21"/>
<wire x1="3.175" y1="-1.27" x2="3.81" y2="-0.635" width="0.2032" layer="21"/>
<wire x1="3.81" y1="-0.635" x2="4.445" y2="-1.27" width="0.2032" layer="21"/>
<wire x1="5.715" y1="-1.27" x2="6.35" y2="-0.635" width="0.2032" layer="21"/>
<wire x1="-1.27" y1="-0.635" x2="-1.27" y2="3.175" width="0.2032" layer="21"/>
<wire x1="-1.27" y1="3.175" x2="-0.635" y2="3.81" width="0.2032" layer="21"/>
<wire x1="-0.635" y1="3.81" x2="0.635" y2="3.81" width="0.2032" layer="21"/>
<wire x1="0.635" y1="3.81" x2="1.27" y2="3.175" width="0.2032" layer="21"/>
<wire x1="1.27" y1="3.175" x2="1.905" y2="3.81" width="0.2032" layer="21"/>
<wire x1="1.905" y1="3.81" x2="3.175" y2="3.81" width="0.2032" layer="21"/>
<wire x1="3.175" y1="3.81" x2="3.81" y2="3.175" width="0.2032" layer="21"/>
<wire x1="3.81" y1="3.175" x2="4.445" y2="3.81" width="0.2032" layer="21"/>
<wire x1="4.445" y1="3.81" x2="5.715" y2="3.81" width="0.2032" layer="21"/>
<wire x1="5.715" y1="3.81" x2="6.35" y2="3.175" width="0.2032" layer="21"/>
<wire x1="1.27" y1="3.175" x2="1.27" y2="-0.635" width="0.2032" layer="21"/>
<wire x1="3.81" y1="3.175" x2="3.81" y2="-0.635" width="0.2032" layer="21"/>
<wire x1="6.35" y1="3.175" x2="6.35" y2="-0.635" width="0.2032" layer="21"/>
<wire x1="4.445" y1="-1.27" x2="5.715" y2="-1.27" width="0.2032" layer="21"/>
<wire x1="1.905" y1="-1.27" x2="3.175" y2="-1.27" width="0.2032" layer="21"/>
<wire x1="-0.635" y1="-1.27" x2="0.635" y2="-1.27" width="0.2032" layer="21"/>
<wire x1="0.635" y1="-1.605" x2="-0.635" y2="-1.605" width="0.2032" layer="21"/>
<pad name="1" x="0" y="0" drill="1.016" diameter="1.8796" shape="octagon"/>
<pad name="2" x="0" y="2.54" drill="1.016" diameter="1.8796" shape="octagon"/>
<pad name="3" x="2.54" y="0" drill="1.016" diameter="1.8796" shape="octagon"/>
<pad name="4" x="2.54" y="2.54" drill="1.016" diameter="1.8796" shape="octagon"/>
<pad name="5" x="5.08" y="0" drill="1.016" diameter="1.8796" shape="octagon"/>
<pad name="6" x="5.08" y="2.54" drill="1.016" diameter="1.8796" shape="octagon"/>
<text x="-1.27" y="4.445" size="1.27" layer="25" ratio="10">&gt;NAME</text>
<text x="-1.27" y="-3.175" size="1.27" layer="27">&gt;VALUE</text>
<rectangle x1="-0.254" y1="-0.254" x2="0.254" y2="0.254" layer="51"/>
<rectangle x1="-0.254" y1="2.286" x2="0.254" y2="2.794" layer="51"/>
<rectangle x1="2.286" y1="2.286" x2="2.794" y2="2.794" layer="51"/>
<rectangle x1="2.286" y1="-0.254" x2="2.794" y2="0.254" layer="51"/>
<rectangle x1="4.826" y1="2.286" x2="5.334" y2="2.794" layer="51"/>
<rectangle x1="4.826" y1="-0.254" x2="5.334" y2="0.254" layer="51"/>
</package>
</packages>
</library>
<library name="transistor">
<description>&lt;b&gt;Transistors&lt;/b&gt;&lt;p&gt;
&lt;author&gt;Created by librarian@cadsoft.de&lt;/author&gt;</description>
<packages>
<package name="TO18">
<description>&lt;b&gt;TO 18&lt;/b&gt;</description>
<wire x1="0.9289" y1="2.227" x2="2.227" y2="0.9289" width="0.0508" layer="51" curve="-44.7172"/>
<wire x1="0.9289" y1="-2.227" x2="2.227" y2="-0.9289" width="0.0508" layer="51" curve="44.7172"/>
<wire x1="-3.937" y1="-0.508" x2="-3.937" y2="0.508" width="0.127" layer="21"/>
<wire x1="-2.227" y1="-0.9289" x2="0.929" y2="2.2271" width="0.0508" layer="21" curve="-135.281"/>
<wire x1="-2.227" y1="-0.9289" x2="-0.9289" y2="-2.227" width="0.0508" layer="51" curve="44.7172"/>
<wire x1="-3.937" y1="-0.508" x2="-2.8765" y2="-0.508" width="0.127" layer="21"/>
<wire x1="-0.9289" y1="-2.227" x2="0.9289" y2="-2.227" width="0.0508" layer="21" curve="45.2828"/>
<wire x1="-3.937" y1="0.508" x2="-2.8765" y2="0.508" width="0.127" layer="21"/>
<wire x1="2.227" y1="-0.9289" x2="2.227" y2="0.9289" width="0.0508" layer="21" curve="45.2828"/>
<circle x="0" y="0" radius="2.921" width="0.127" layer="21"/>
<pad name="1" x="-1.27" y="-1.27" drill="0.8128" shape="octagon"/>
<pad name="2" x="1.27" y="-1.27" drill="0.8128" shape="octagon"/>
<pad name="3" x="1.27" y="1.27" drill="0.8128" shape="octagon"/>
<text x="3.175" y="0" size="1.27" layer="25" ratio="10">&gt;NAME</text>
<text x="3.175" y="-1.905" size="1.27" layer="27" ratio="10">&gt;VALUE</text>
<text x="-1.905" y="-1.27" size="1.27" layer="51" ratio="10">1</text>
<text x="0.635" y="-1.27" size="1.27" layer="51" ratio="10">2</text>
<text x="0" y="0.635" size="1.27" layer="51" ratio="10">3</text>
</package>
</packages>
</library>
<library name="mylib">
<packages>
<package name="TSOP-5MM">
<description>Vishay IR receiver (TSOP38238, TSOP 38438, etc.) with a 5mm diode.</description>
<pad name="2" x="0" y="0" drill="1" diameter="1.9304"/>
<pad name="1" x="-2.54" y="0" drill="1" diameter="1.9304"/>
<pad name="3" x="2.54" y="0" drill="1" diameter="1.9304"/>
<wire x1="-2.5" y1="1.3" x2="-2.5" y2="1.4" width="0.127" layer="21"/>
<wire x1="-2.5" y1="1.4" x2="2.5" y2="1.4" width="0.127" layer="21"/>
<wire x1="2.5" y1="1.4" x2="2.5" y2="1.3" width="0.127" layer="21"/>
<wire x1="-2.5" y1="-1.3" x2="-2.5" y2="-1.4" width="0.127" layer="21"/>
<wire x1="-2.5" y1="-1.4" x2="-2" y2="-1.4" width="0.127" layer="21"/>
<wire x1="2" y1="-1.4" x2="2.5" y2="-1.4" width="0.127" layer="21"/>
<wire x1="2.5" y1="-1.4" x2="2.5" y2="-1.3" width="0.127" layer="21"/>
<wire x1="-2" y1="-1.4" x2="2" y2="-1.4" width="0.127" layer="21" curve="180"/>
<text x="-2.54" y="1.905" size="1.27" layer="25">&gt;NAME</text>
</package>
<package name="RS-REED-RELAY">
<pad name="2" x="-10.16" y="0" drill="0.9" diameter="1.778"/>
<pad name="1" x="-7.62" y="2.54" drill="0.9" diameter="1.778"/>
<pad name="3" x="-7.62" y="-2.54" drill="0.9" diameter="1.778"/>
<pad name="4" x="10.16" y="0" drill="0.9" diameter="1.778"/>
<wire x1="-12.2682" y1="-4.953" x2="-12.2682" y2="4.953" width="0.127" layer="21"/>
<wire x1="-12.2682" y1="4.953" x2="12.2682" y2="4.953" width="0.127" layer="21"/>
<wire x1="12.2682" y1="4.953" x2="12.2682" y2="-4.953" width="0.127" layer="21"/>
<wire x1="12.2682" y1="-4.953" x2="-12.2682" y2="-4.953" width="0.127" layer="21"/>
<text x="-12.065" y="5.715" size="1.27" layer="25">&gt;NAME</text>
</package>
<package name="DIL14">
<wire x1="7.62" y1="2.921" x2="7.62" y2="-2.921" width="0.2032" layer="21"/>
<wire x1="-10.16" y1="2.921" x2="-10.16" y2="1.016" width="0.2032" layer="21"/>
<wire x1="-10.16" y1="-2.921" x2="-10.16" y2="-1.016" width="0.2032" layer="21"/>
<wire x1="-10.16" y1="-1.016" x2="-10.16" y2="1.016" width="0.2032" layer="21" curve="180"/>
<wire x1="-10.16" y1="2.921" x2="-9.906" y2="2.921" width="0.2032" layer="21"/>
<wire x1="7.62" y1="2.921" x2="7.366" y2="2.921" width="0.2032" layer="21"/>
<wire x1="-10.16" y1="-2.921" x2="-9.906" y2="-2.921" width="0.2032" layer="21"/>
<wire x1="7.62" y1="-2.921" x2="7.366" y2="-2.921" width="0.2032" layer="21"/>
<wire x1="-7.9502" y1="2.921" x2="-7.2898" y2="2.921" width="0.2032" layer="21"/>
<wire x1="-5.4102" y1="2.921" x2="-4.7498" y2="2.921" width="0.2032" layer="21"/>
<wire x1="-2.8702" y1="2.921" x2="-2.2098" y2="2.921" width="0.2032" layer="21"/>
<wire x1="-0.3302" y1="2.921" x2="0.3302" y2="2.921" width="0.2032" layer="21"/>
<wire x1="2.2098" y1="2.921" x2="2.8702" y2="2.921" width="0.2032" layer="21"/>
<wire x1="4.7498" y1="2.921" x2="5.4102" y2="2.921" width="0.2032" layer="21"/>
<wire x1="4.7498" y1="-2.921" x2="5.4102" y2="-2.921" width="0.2032" layer="21"/>
<wire x1="2.2098" y1="-2.921" x2="2.8702" y2="-2.921" width="0.2032" layer="21"/>
<wire x1="-0.3302" y1="-2.921" x2="0.3302" y2="-2.921" width="0.2032" layer="21"/>
<wire x1="-2.8702" y1="-2.921" x2="-2.2098" y2="-2.921" width="0.2032" layer="21"/>
<wire x1="-5.4102" y1="-2.921" x2="-4.7498" y2="-2.921" width="0.2032" layer="21"/>
<wire x1="-7.9502" y1="-2.921" x2="-7.2898" y2="-2.921" width="0.2032" layer="21"/>
<pad name="1" x="-8.89" y="-3.81" drill="0.8128" shape="long" rot="R90"/>
<pad name="2" x="-6.35" y="-3.81" drill="0.8128" shape="long" rot="R90"/>
<pad name="3" x="-3.81" y="-3.81" drill="0.8128" shape="long" rot="R90"/>
<pad name="4" x="-1.27" y="-3.81" drill="0.8128" shape="long" rot="R90"/>
<pad name="5" x="1.27" y="-3.81" drill="0.8128" shape="long" rot="R90"/>
<pad name="6" x="3.81" y="-3.81" drill="0.8128" shape="long" rot="R90"/>
<pad name="7" x="6.35" y="-3.81" drill="0.8128" shape="long" rot="R90"/>
<pad name="8" x="6.35" y="3.81" drill="0.8128" shape="long" rot="R90"/>
<pad name="9" x="3.81" y="3.81" drill="0.8128" shape="long" rot="R90"/>
<pad name="10" x="1.27" y="3.81" drill="0.8128" shape="long" rot="R90"/>
<pad name="11" x="-1.27" y="3.81" drill="0.8128" shape="long" rot="R90"/>
<pad name="12" x="-3.81" y="3.81" drill="0.8128" shape="long" rot="R90"/>
<pad name="13" x="-6.35" y="3.81" drill="0.8128" shape="long" rot="R90"/>
<pad name="14" x="-8.89" y="3.81" drill="0.8128" shape="long" rot="R90"/>
<text x="-6.35" y="0.635" size="1.27" layer="25" ratio="10">&gt;NAME</text>
<text x="-6.35" y="-1.778" size="1.27" layer="27" ratio="10">&gt;VALUE</text>
</package>
</packages>
</library>
</libraries>
<attributes>
</attributes>
<variantdefs>
</variantdefs>
<classes>
<class number="0" name="default" width="0" drill="0">
</class>
</classes>
<designrules name="LaenPCBOrder">
<description language="de">&lt;b&gt;EAGLE Design Rules&lt;/b&gt;
&lt;p&gt;
Die Standard-Design-Rules sind so gewÃ¤hlt, dass sie fÃ¼r 
die meisten Anwendungen passen. Sollte ihre Platine 
besondere Anforderungen haben, treffen Sie die erforderlichen
Einstellungen hier und speichern die Design Rules unter 
einem neuen Namen ab.</description>
<description language="en">&lt;b&gt;Laen's PCB Order Design Rules&lt;/b&gt;
&lt;p&gt;
Please make sure your boards conform to these design rules.</description>
<param name="layerSetup" value="(1*16)"/>
<param name="mtCopper" value="0.0356mm 0.0356mm 0.0356mm 0.0356mm 0.0356mm 0.0356mm 0.0356mm 0.0356mm 0.0356mm 0.0356mm 0.0356mm 0.0356mm 0.0356mm 0.0356mm 0.0356mm 0.0356mm"/>
<param name="mtIsolate" value="1.5011mm 0.1499mm 0.2007mm 0.1499mm 0.2007mm 0.1499mm 0.2007mm 0.1499mm 0.2007mm 0.1499mm 0.2007mm 0.1499mm 0.2007mm 0.1499mm 0.2007mm"/>
<param name="mdWireWire" value="6mil"/>
<param name="mdWirePad" value="6mil"/>
<param name="mdWireVia" value="6mil"/>
<param name="mdPadPad" value="6mil"/>
<param name="mdPadVia" value="6mil"/>
<param name="mdViaVia" value="6mil"/>
<param name="mdSmdPad" value="6mil"/>
<param name="mdSmdVia" value="6mil"/>
<param name="mdSmdSmd" value="6mil"/>
<param name="mdViaViaSameLayer" value="8mil"/>
<param name="mnLayersViaInSmd" value="2"/>
<param name="mdCopperDimension" value="15mil"/>
<param name="mdDrill" value="6mil"/>
<param name="mdSmdStop" value="0mil"/>
<param name="msWidth" value="6mil"/>
<param name="msDrill" value="13mil"/>
<param name="msMicroVia" value="13mil"/>
<param name="msBlindViaRatio" value="0.5"/>
<param name="rvPadTop" value="0.25"/>
<param name="rvPadInner" value="0.25"/>
<param name="rvPadBottom" value="0.25"/>
<param name="rvViaOuter" value="0.25"/>
<param name="rvViaInner" value="0.25"/>
<param name="rvMicroViaOuter" value="0.25"/>
<param name="rvMicroViaInner" value="0.25"/>
<param name="rlMinPadTop" value="7mil"/>
<param name="rlMaxPadTop" value="20mil"/>
<param name="rlMinPadInner" value="7mil"/>
<param name="rlMaxPadInner" value="20mil"/>
<param name="rlMinPadBottom" value="7mil"/>
<param name="rlMaxPadBottom" value="20mil"/>
<param name="rlMinViaOuter" value="7mil"/>
<param name="rlMaxViaOuter" value="20mil"/>
<param name="rlMinViaInner" value="7mil"/>
<param name="rlMaxViaInner" value="20mil"/>
<param name="rlMinMicroViaOuter" value="4mil"/>
<param name="rlMaxMicroViaOuter" value="20mil"/>
<param name="rlMinMicroViaInner" value="4mil"/>
<param name="rlMaxMicroViaInner" value="20mil"/>
<param name="psTop" value="-1"/>
<param name="psBottom" value="-1"/>
<param name="psFirst" value="-1"/>
<param name="psElongationLong" value="100"/>
<param name="psElongationOffset" value="100"/>
<param name="mvStopFrame" value="1"/>
<param name="mvCreamFrame" value="0"/>
<param name="mlMinStopFrame" value="4mil"/>
<param name="mlMaxStopFrame" value="4mil"/>
<param name="mlMinCreamFrame" value="0mil"/>
<param name="mlMaxCreamFrame" value="0mil"/>
<param name="mlViaStopLimit" value="0mil"/>
<param name="srRoundness" value="0"/>
<param name="srMinRoundness" value="0mil"/>
<param name="srMaxRoundness" value="0mil"/>
<param name="slThermalIsolate" value="10mil"/>
<param name="slThermalsForVias" value="0"/>
<param name="dpMaxLengthDifference" value="10mm"/>
<param name="dpGapFactor" value="2.5"/>
<param name="checkGrid" value="0"/>
<param name="checkAngle" value="0"/>
<param name="checkFont" value="1"/>
<param name="checkRestrict" value="1"/>
<param name="useDiameter" value="13"/>
<param name="maxErrors" value="50"/>
</designrules>
<autorouter>
<pass name="Default">
<param name="RoutingGrid" value="50mil"/>
<param name="tpViaShape" value="round"/>
<param name="PrefDir.1" value="|"/>
<param name="PrefDir.2" value="0"/>
<param name="PrefDir.3" value="0"/>
<param name="PrefDir.4" value="0"/>
<param name="PrefDir.5" value="0"/>
<param name="PrefDir.6" value="0"/>
<param name="PrefDir.7" value="0"/>
<param name="PrefDir.8" value="0"/>
<param name="PrefDir.9" value="0"/>
<param name="PrefDir.10" value="0"/>
<param name="PrefDir.11" value="0"/>
<param name="PrefDir.12" value="0"/>
<param name="PrefDir.13" value="0"/>
<param name="PrefDir.14" value="0"/>
<param name="PrefDir.15" value="0"/>
<param name="PrefDir.16" value="-"/>
<param name="cfVia" value="8"/>
<param name="cfNonPref" value="5"/>
<param name="cfChangeDir" value="2"/>
<param name="cfOrthStep" value="2"/>
<param name="cfDiagStep" value="3"/>
<param name="cfExtdStep" value="0"/>
<param name="cfBonusStep" value="1"/>
<param name="cfMalusStep" value="1"/>
<param name="cfPadImpact" value="4"/>
<param name="cfSmdImpact" value="4"/>
<param name="cfBusImpact" value="0"/>
<param name="cfHugging" value="3"/>
<param name="cfAvoid" value="4"/>
<param name="cfPolygon" value="10"/>
<param name="cfBase.1" value="0"/>
<param name="cfBase.2" value="1"/>
<param name="cfBase.3" value="1"/>
<param name="cfBase.4" value="1"/>
<param name="cfBase.5" value="1"/>
<param name="cfBase.6" value="1"/>
<param name="cfBase.7" value="1"/>
<param name="cfBase.8" value="1"/>
<param name="cfBase.9" value="1"/>
<param name="cfBase.10" value="1"/>
<param name="cfBase.11" value="1"/>
<param name="cfBase.12" value="1"/>
<param name="cfBase.13" value="1"/>
<param name="cfBase.14" value="1"/>
<param name="cfBase.15" value="1"/>
<param name="cfBase.16" value="0"/>
<param name="mnVias" value="20"/>
<param name="mnSegments" value="9999"/>
<param name="mnExtdSteps" value="9999"/>
<param name="mnRipupLevel" value="10"/>
<param name="mnRipupSteps" value="100"/>
<param name="mnRipupTotal" value="100"/>
</pass>
<pass name="Follow-me" refer="Default" active="yes">
</pass>
<pass name="Busses" refer="Default" active="yes">
<param name="cfNonPref" value="4"/>
<param name="cfBusImpact" value="4"/>
<param name="cfHugging" value="0"/>
<param name="mnVias" value="0"/>
</pass>
<pass name="Route" refer="Default" active="yes">
</pass>
<pass name="Optimize1" refer="Default" active="yes">
<param name="cfVia" value="99"/>
<param name="cfExtdStep" value="10"/>
<param name="cfHugging" value="1"/>
<param name="mnExtdSteps" value="1"/>
<param name="mnRipupLevel" value="0"/>
</pass>
<pass name="Optimize2" refer="Optimize1" active="yes">
<param name="cfNonPref" value="0"/>
<param name="cfChangeDir" value="6"/>
<param name="cfExtdStep" value="0"/>
<param name="cfBonusStep" value="2"/>
<param name="cfMalusStep" value="2"/>
<param name="cfPadImpact" value="2"/>
<param name="cfSmdImpact" value="2"/>
<param name="cfHugging" value="0"/>
</pass>
<pass name="Optimize3" refer="Optimize2" active="yes">
<param name="cfChangeDir" value="8"/>
<param name="cfPadImpact" value="0"/>
<param name="cfSmdImpact" value="0"/>
</pass>
<pass name="Optimize4" refer="Optimize3" active="yes">
<param name="cfChangeDir" value="25"/>
</pass>
</autorouter>
<elements>
<element name="C1" library="SparkFun" package="CPOL-RADIAL-100UF-25V" value="10uF" x="5.08" y="10.16" rot="R180"/>
<element name="C2" library="SparkFun" package="CAP-PTH-5MM" value="100nF" x="3.81" y="15.24"/>
<element name="R1" library="SparkFun" package="AXIAL-0.4" value="47k" x="10.16" y="33.02"/>
<element name="S1" library="SparkFun" package="TACTILE-PTH" value="" x="10.16" y="26.67"/>
<element name="Q1" library="transistor" package="TO18" value="2N2222" x="36.83" y="26.67" rot="R270"/>
<element name="R2" library="SparkFun" package="AXIAL-0.4" value="1k" x="31.75" y="30.48" rot="R270"/>
<element name="D1" library="SparkFun" package="DIODE-1N4001" value="1N4001" x="38.1" y="15.24" rot="R270"/>
<element name="U2" library="mylib" package="TSOP-5MM" value="TSOP38238" x="22.86" y="41.91" rot="R180"/>
<element name="JP1" library="SparkFun" package="1X04" value="" x="26.67" y="5.08"/>
<element name="U3" library="mylib" package="RS-REED-RELAY" value="OMR-C-105H" x="22.86" y="15.24" rot="R180"/>
<element name="U1" library="mylib" package="DIL14" value="ATTINY84A" x="22.86" y="29.21" rot="R270"/>
<element name="J1" library="SparkFun" package="2X3" value="AVR_SPI_PRG_6PTH" x="19.05" y="7.112" rot="R180"/>
</elements>
<signals>
<signal name="VCC">
<contactref element="U1" pad="1"/>
<contactref element="C1" pad="1"/>
<contactref element="C2" pad="1"/>
<contactref element="R1" pad="P$2"/>
<contactref element="D1" pad="C"/>
<contactref element="U3" pad="1"/>
<contactref element="U2" pad="3"/>
<contactref element="JP1" pad="4"/>
<contactref element="J1" pad="2"/>
<wire x1="3.81" y1="35.56" x2="12.7" y2="35.56" width="0.6096" layer="1"/>
<wire x1="12.7" y1="35.56" x2="15.24" y2="33.02" width="0.6096" layer="1"/>
<wire x1="19.05" y1="38.1" x2="6.35" y2="38.1" width="0.6096" layer="1"/>
<wire x1="6.35" y1="38.1" x2="3.81" y2="35.56" width="0.6096" layer="1"/>
<wire x1="20.32" y1="41.91" x2="20.32" y2="39.37" width="0.6096" layer="1"/>
<wire x1="20.32" y1="39.37" x2="19.05" y2="38.1" width="0.6096" layer="1"/>
<wire x1="34.29" y1="5.08" x2="34.29" y2="8.89" width="0.6096" layer="1"/>
<wire x1="34.29" y1="8.89" x2="30.48" y2="12.7" width="0.6096" layer="1"/>
<wire x1="38.1" y1="10.16" x2="35.56" y2="10.16" width="0.6096" layer="1"/>
<wire x1="35.56" y1="10.16" x2="34.29" y2="8.89" width="0.6096" layer="1"/>
<wire x1="19.05" y1="2.54" x2="17.78" y2="1.27" width="0.6096" layer="1"/>
<wire x1="17.78" y1="1.27" x2="7.62" y2="1.27" width="0.6096" layer="1"/>
<wire x1="7.62" y1="1.27" x2="3.81" y2="5.08" width="0.6096" layer="1"/>
<wire x1="3.81" y1="5.08" x2="3.81" y2="10.16" width="0.6096" layer="1"/>
<wire x1="19.05" y1="4.572" x2="19.05" y2="2.54" width="0.6096" layer="1"/>
<wire x1="19.05" y1="2.54" x2="20.32" y2="1.27" width="0.6096" layer="1"/>
<wire x1="20.32" y1="1.27" x2="33.02" y2="1.27" width="0.6096" layer="1"/>
<wire x1="33.02" y1="1.27" x2="34.29" y2="2.54" width="0.6096" layer="1"/>
<wire x1="34.29" y1="2.54" x2="34.29" y2="5.08" width="0.6096" layer="1"/>
<wire x1="3.81" y1="10.16" x2="1.27" y2="12.7" width="0.6096" layer="1"/>
<wire x1="1.27" y1="12.7" x2="1.27" y2="15.2" width="0.6096" layer="1"/>
<wire x1="1.27" y1="15.2" x2="1.31" y2="15.24" width="0.6096" layer="1"/>
<wire x1="1.31" y1="15.24" x2="1.31" y2="33.06" width="0.6096" layer="1"/>
<wire x1="1.31" y1="33.06" x2="3.81" y2="35.56" width="0.6096" layer="1"/>
</signal>
<signal name="GND">
<contactref element="U1" pad="14"/>
<contactref element="C1" pad="2"/>
<contactref element="C2" pad="2"/>
<contactref element="S1" pad="3"/>
<contactref element="S1" pad="4"/>
<contactref element="Q1" pad="1"/>
<contactref element="U2" pad="2"/>
<contactref element="JP1" pad="1"/>
<polygon width="0.4064" layer="16" isolate="0.4064">
<vertex x="0.508" y="0.508"/>
<vertex x="0.508" y="45.212"/>
<vertex x="41.402" y="45.212"/>
<vertex x="41.402" y="0.508"/>
</polygon>
<contactref element="J1" pad="6"/>
</signal>
<signal name="RESET">
<contactref element="S1" pad="1"/>
<contactref element="S1" pad="2"/>
<contactref element="R1" pad="P$1"/>
<contactref element="U1" pad="4"/>
<contactref element="J1" pad="5"/>
<wire x1="13.4112" y1="28.9306" x2="13.6906" y2="28.9306" width="0.4064" layer="1"/>
<wire x1="13.6906" y1="28.9306" x2="15.24" y2="30.48" width="0.4064" layer="1"/>
<wire x1="15.24" y1="30.48" x2="19.05" y2="30.48" width="0.4064" layer="1"/>
<wire x1="13.4112" y1="28.9306" x2="6.9088" y2="28.9306" width="0.4064" layer="1"/>
<wire x1="6.9088" y1="28.9306" x2="6.6294" y2="28.9306" width="0.4064" layer="1"/>
<wire x1="6.6294" y1="28.9306" x2="5.08" y2="30.48" width="0.4064" layer="1"/>
<wire x1="5.08" y1="30.48" x2="5.08" y2="33.02" width="0.4064" layer="1"/>
<wire x1="12.7" y1="21.59" x2="20.32" y2="21.59" width="0.4064" layer="1"/>
<wire x1="20.32" y1="21.59" x2="21.59" y2="22.86" width="0.4064" layer="1"/>
<wire x1="21.59" y1="22.86" x2="21.59" y2="25.4" width="0.4064" layer="1"/>
<wire x1="21.59" y1="25.4" x2="20.32" y2="26.67" width="0.4064" layer="1"/>
<wire x1="20.32" y1="26.67" x2="15.6718" y2="26.67" width="0.4064" layer="1"/>
<wire x1="13.97" y1="7.112" x2="13.97" y2="7.62" width="0.4064" layer="1"/>
<wire x1="13.97" y1="7.62" x2="8.89" y2="12.7" width="0.4064" layer="1"/>
<wire x1="8.89" y1="12.7" x2="8.89" y2="17.78" width="0.4064" layer="1"/>
<wire x1="8.89" y1="17.78" x2="12.7" y2="21.59" width="0.4064" layer="1"/>
<wire x1="15.6718" y1="26.67" x2="13.4112" y2="28.9306" width="0.4064" layer="1"/>
</signal>
<signal name="POW_A">
<contactref element="U3" pad="2"/>
<contactref element="JP1" pad="3"/>
<wire x1="33.02" y1="15.24" x2="30.48" y2="15.24" width="0.4064" layer="1"/>
<wire x1="30.48" y1="15.24" x2="27.94" y2="12.7" width="0.4064" layer="1"/>
<wire x1="27.94" y1="12.7" x2="27.94" y2="8.89" width="0.4064" layer="1"/>
<wire x1="27.94" y1="8.89" x2="31.75" y2="5.08" width="0.4064" layer="1"/>
</signal>
<signal name="N$2">
<contactref element="Q1" pad="3"/>
<contactref element="D1" pad="A"/>
<contactref element="U3" pad="3"/>
<wire x1="38.1" y1="25.4" x2="38.1" y2="20.32" width="0.4064" layer="1"/>
<wire x1="30.48" y1="17.78" x2="38.1" y2="25.4" width="0.4064" layer="1"/>
</signal>
<signal name="N$3">
<contactref element="R2" pad="P$2"/>
<contactref element="Q1" pad="2"/>
<wire x1="31.75" y1="25.4" x2="35.56" y2="25.4" width="0.4064" layer="1"/>
</signal>
<signal name="N$5">
<contactref element="U2" pad="1"/>
<contactref element="U1" pad="5"/>
<wire x1="25.4" y1="41.91" x2="25.4" y2="40.64" width="0.4064" layer="1"/>
<wire x1="25.4" y1="40.64" x2="21.59" y2="36.83" width="0.4064" layer="1"/>
<wire x1="21.59" y1="36.83" x2="21.59" y2="30.48" width="0.4064" layer="1"/>
<wire x1="21.59" y1="30.48" x2="19.05" y2="27.94" width="0.4064" layer="1"/>
</signal>
<signal name="N$4">
<contactref element="R2" pad="P$1"/>
<contactref element="U1" pad="13"/>
<wire x1="26.67" y1="35.56" x2="31.75" y2="35.56" width="0.4064" layer="1"/>
</signal>
<signal name="N$6">
<contactref element="JP1" pad="2"/>
<contactref element="U3" pad="4"/>
<wire x1="29.21" y1="5.08" x2="29.21" y2="6.35" width="0.4064" layer="1"/>
<wire x1="29.21" y1="6.35" x2="20.32" y2="15.24" width="0.4064" layer="1"/>
<wire x1="20.32" y1="15.24" x2="12.7" y2="15.24" width="0.4064" layer="1"/>
</signal>
<signal name="MISO">
<contactref element="U1" pad="8"/>
<contactref element="J1" pad="1"/>
<wire x1="19.05" y1="7.112" x2="19.05" y2="8.89" width="0.4064" layer="1"/>
<wire x1="19.05" y1="8.89" x2="16.51" y2="11.43" width="0.4064" layer="1"/>
<wire x1="16.51" y1="11.43" x2="12.7" y2="11.43" width="0.4064" layer="1"/>
<wire x1="12.7" y1="11.43" x2="11.43" y2="12.7" width="0.4064" layer="1"/>
<wire x1="11.43" y1="12.7" x2="11.43" y2="17.78" width="0.4064" layer="1"/>
<wire x1="11.43" y1="17.78" x2="12.7" y2="19.05" width="0.4064" layer="1"/>
<wire x1="12.7" y1="19.05" x2="22.86" y2="19.05" width="0.4064" layer="1"/>
<wire x1="22.86" y1="19.05" x2="26.67" y2="22.86" width="0.4064" layer="1"/>
</signal>
<signal name="MOSI">
<contactref element="U1" pad="7"/>
<contactref element="J1" pad="4"/>
<wire x1="19.05" y1="22.86" x2="12.7" y2="22.86" width="0.4064" layer="1"/>
<wire x1="16.51" y1="4.572" x2="16.51" y2="3.81" width="0.4064" layer="1"/>
<wire x1="16.51" y1="3.81" x2="15.24" y2="2.54" width="0.4064" layer="1"/>
<wire x1="15.24" y1="2.54" x2="11.43" y2="2.54" width="0.4064" layer="1"/>
<wire x1="11.43" y1="2.54" x2="7.62" y2="6.35" width="0.4064" layer="1"/>
<wire x1="7.62" y1="6.35" x2="7.62" y2="17.78" width="0.4064" layer="1"/>
<wire x1="7.62" y1="17.78" x2="12.7" y2="22.86" width="0.4064" layer="1"/>
</signal>
<signal name="SCK">
<contactref element="U1" pad="9"/>
<contactref element="J1" pad="3"/>
<wire x1="12.7" y1="20.32" x2="21.59" y2="20.32" width="0.4064" layer="1"/>
<wire x1="21.59" y1="20.32" x2="26.67" y2="25.4" width="0.4064" layer="1"/>
<wire x1="16.51" y1="7.62" x2="16.51" y2="8.89" width="0.4064" layer="1"/>
<wire x1="16.51" y1="8.89" x2="15.24" y2="10.16" width="0.4064" layer="1"/>
<wire x1="15.24" y1="10.16" x2="12.7" y2="10.16" width="0.4064" layer="1"/>
<wire x1="12.7" y1="10.16" x2="10.16" y2="12.7" width="0.4064" layer="1"/>
<wire x1="10.16" y1="12.7" x2="10.16" y2="17.78" width="0.4064" layer="1"/>
<wire x1="10.16" y1="17.78" x2="12.7" y2="20.32" width="0.4064" layer="1"/>
<wire x1="16.51" y1="7.112" x2="16.51" y2="7.62" width="0" layer="19" extent="1-1"/>
</signal>
</signals>
</board>
</drawing>
</eagle>
